Rb Data/transient/trans421-1.csv

Record Length,10000,Points,-15.2000E-3,315.40000E-3,
Sample Interval,20.0000E-6,s,-15.1800E-3,314.59999E-3,
Trigger Point,760.000032,Samples,-15.1600E-3,314.20001E-3,
,,,-15.1400E-3,314.20001E-3,
,,,-15.1200E-3,314.20001E-3,
,,,-15.1000E-3,315.00000E-3,
Source,CH1,,-15.0800E-3,315.00000E-3,
Vertical Units,V,,-15.0600E-3,315.00000E-3,
Vertical Scale,10.00000E-3,,-15.0400E-3,313.80001E-3,
Vertical Offset,6.20000E-3,,-15.0200E-3,314.59999E-3,
Horizontal Units,s,,-15.0000E-3,314.59999E-3,
Horizontal Scale,20.0000E-3,,-14.9800E-3,315.00000E-3,
Pt Fmt,Y,,-14.9600E-3,313.80001E-3,
Yzero,.,,-14.9400E-3,315.00000E-3,
Probe Atten,10.0000,,-14.9200E-3,313.80001E-3,
,,,-14.9000E-3,314.20001E-3,
Note,TDS 3012 - 2:43:11 PM   4/21/2009,,-14.8800E-3,314.59999E-3,
,,,-14.8600E-3,314.59999E-3,
,,,-14.8400E-3,313.80001E-3,
,,,-14.8200E-3,314.20001E-3,
,,,-14.8000E-3,315.00000E-3,
,,,-14.7800E-3,314.20001E-3,
,,,-14.7600E-3,314.59999E-3,
,,,-14.7400E-3,314.59999E-3,
,,,-14.7200E-3,314.59999E-3,
,,,-14.7000E-3,315.00000E-3,
,,,-14.6800E-3,314.59999E-3,
,,,-14.6600E-3,314.20001E-3,
,,,-14.6400E-3,314.59999E-3,
,,,-14.6200E-3,314.20001E-3,
,,,-14.6000E-3,314.59999E-3,
,,,-14.5800E-3,314.59999E-3,
,,,-14.5600E-3,314.59999E-3,
,,,-14.5400E-3,315.00000E-3,
,,,-14.5200E-3,314.59999E-3,
,,,-14.5000E-3,315.00000E-3,
,,,-14.4800E-3,314.59999E-3,
,,,-14.4600E-3,314.20001E-3,
,,,-14.4400E-3,315.00000E-3,
,,,-14.4200E-3,314.20001E-3,
,,,-14.4000E-3,314.59999E-3,
,,,-14.3800E-3,314.59999E-3,
,,,-14.3600E-3,315.40000E-3,
,,,-14.3400E-3,314.20001E-3,
,,,-14.3200E-3,313.80001E-3,
,,,-14.3000E-3,315.00000E-3,
,,,-14.2800E-3,315.80001E-3,
,,,-14.2600E-3,314.59999E-3,
,,,-14.2400E-3,314.20001E-3,
,,,-14.2200E-3,315.40000E-3,
,,,-14.2000E-3,314.59999E-3,
,,,-14.1800E-3,314.20001E-3,
,,,-14.1600E-3,314.59999E-3,
,,,-14.1400E-3,313.80001E-3,
,,,-14.1200E-3,314.59999E-3,
,,,-14.1000E-3,314.59999E-3,
,,,-14.0800E-3,313.80001E-3,
,,,-14.0600E-3,315.00000E-3,
,,,-14.0400E-3,314.59999E-3,
,,,-14.0200E-3,314.20001E-3,
,,,-14.0000E-3,314.20001E-3,
,,,-13.9800E-3,315.00000E-3,
,,,-13.9600E-3,315.00000E-3,
,,,-13.9400E-3,315.00000E-3,
,,,-13.9200E-3,313.80001E-3,
,,,-13.9000E-3,314.59999E-3,
,,,-13.8800E-3,315.40000E-3,
,,,-13.8600E-3,315.00000E-3,
,,,-13.8400E-3,314.20001E-3,
,,,-13.8200E-3,314.20001E-3,
,,,-13.8000E-3,314.59999E-3,
,,,-13.7800E-3,315.00000E-3,
,,,-13.7600E-3,315.00000E-3,
,,,-13.7400E-3,315.00000E-3,
,,,-13.7200E-3,314.20001E-3,
,,,-13.7000E-3,314.59999E-3,
,,,-13.6800E-3,314.59999E-3,
,,,-13.6600E-3,314.59999E-3,
,,,-13.6400E-3,315.00000E-3,
,,,-13.6200E-3,314.59999E-3,
,,,-13.6000E-3,314.20001E-3,
,,,-13.5800E-3,314.59999E-3,
,,,-13.5600E-3,314.59999E-3,
,,,-13.5400E-3,314.20001E-3,
,,,-13.5200E-3,315.00000E-3,
,,,-13.5000E-3,315.40000E-3,
,,,-13.4800E-3,314.59999E-3,
,,,-13.4600E-3,314.20001E-3,
,,,-13.4400E-3,314.20001E-3,
,,,-13.4200E-3,315.00000E-3,
,,,-13.4000E-3,315.00000E-3,
,,,-13.3800E-3,314.20001E-3,
,,,-13.3600E-3,314.20001E-3,
,,,-13.3400E-3,314.59999E-3,
,,,-13.3200E-3,314.59999E-3,
,,,-13.3000E-3,314.59999E-3,
,,,-13.2800E-3,313.40000E-3,
,,,-13.2600E-3,313.40000E-3,
,,,-13.2400E-3,314.20001E-3,
,,,-13.2200E-3,314.20001E-3,
,,,-13.2000E-3,315.80001E-3,
,,,-13.1800E-3,314.20001E-3,
,,,-13.1600E-3,314.20001E-3,
,,,-13.1400E-3,314.20001E-3,
,,,-13.1200E-3,314.20001E-3,
,,,-13.1000E-3,314.59999E-3,
,,,-13.0800E-3,314.59999E-3,
,,,-13.0600E-3,315.00000E-3,
,,,-13.0400E-3,314.20001E-3,
,,,-13.0200E-3,315.40000E-3,
,,,-13.0000E-3,314.59999E-3,
,,,-12.9800E-3,314.59999E-3,
,,,-12.9600E-3,313.80001E-3,
,,,-12.9400E-3,314.59999E-3,
,,,-12.9200E-3,314.20001E-3,
,,,-12.9000E-3,314.20001E-3,
,,,-12.8800E-3,314.20001E-3,
,,,-12.8600E-3,314.20001E-3,
,,,-12.8400E-3,314.20001E-3,
,,,-12.8200E-3,314.59999E-3,
,,,-12.8000E-3,314.20001E-3,
,,,-12.7800E-3,315.40000E-3,
,,,-12.7600E-3,315.00000E-3,
,,,-12.7400E-3,314.20001E-3,
,,,-12.7200E-3,315.00000E-3,
,,,-12.7000E-3,315.00000E-3,
,,,-12.6800E-3,314.59999E-3,
,,,-12.6600E-3,314.59999E-3,
,,,-12.6400E-3,315.40000E-3,
,,,-12.6200E-3,314.59999E-3,
,,,-12.6000E-3,315.00000E-3,
,,,-12.5800E-3,313.80001E-3,
,,,-12.5600E-3,315.00000E-3,
,,,-12.5400E-3,314.20001E-3,
,,,-12.5200E-3,314.20001E-3,
,,,-12.5000E-3,315.00000E-3,
,,,-12.4800E-3,315.00000E-3,
,,,-12.4600E-3,314.20001E-3,
,,,-12.4400E-3,315.00000E-3,
,,,-12.4200E-3,314.59999E-3,
,,,-12.4000E-3,315.00000E-3,
,,,-12.3800E-3,314.20001E-3,
,,,-12.3600E-3,315.00000E-3,
,,,-12.3400E-3,314.59999E-3,
,,,-12.3200E-3,315.00000E-3,
,,,-12.3000E-3,314.59999E-3,
,,,-12.2800E-3,314.20001E-3,
,,,-12.2600E-3,314.20001E-3,
,,,-12.2400E-3,315.00000E-3,
,,,-12.2200E-3,315.00000E-3,
,,,-12.2000E-3,314.20001E-3,
,,,-12.1800E-3,314.59999E-3,
,,,-12.1600E-3,314.20001E-3,
,,,-12.1400E-3,314.59999E-3,
,,,-12.1200E-3,314.59999E-3,
,,,-12.1000E-3,314.59999E-3,
,,,-12.0800E-3,315.00000E-3,
,,,-12.0600E-3,315.00000E-3,
,,,-12.0400E-3,314.20001E-3,
,,,-12.0200E-3,315.00000E-3,
,,,-12.0000E-3,314.59999E-3,
,,,-11.9800E-3,315.00000E-3,
,,,-11.9600E-3,315.00000E-3,
,,,-11.9400E-3,314.59999E-3,
,,,-11.9200E-3,314.20001E-3,
,,,-11.9000E-3,315.00000E-3,
,,,-11.8800E-3,315.00000E-3,
,,,-11.8600E-3,315.00000E-3,
,,,-11.8400E-3,315.00000E-3,
,,,-11.8200E-3,313.80001E-3,
,,,-11.8000E-3,315.00000E-3,
,,,-11.7800E-3,315.00000E-3,
,,,-11.7600E-3,315.40000E-3,
,,,-11.7400E-3,314.20001E-3,
,,,-11.7200E-3,315.00000E-3,
,,,-11.7000E-3,315.40000E-3,
,,,-11.6800E-3,313.80001E-3,
,,,-11.6600E-3,314.20001E-3,
,,,-11.6400E-3,315.00000E-3,
,,,-11.6200E-3,315.00000E-3,
,,,-11.6000E-3,315.00000E-3,
,,,-11.5800E-3,315.40000E-3,
,,,-11.5600E-3,315.00000E-3,
,,,-11.5400E-3,315.00000E-3,
,,,-11.5200E-3,315.80001E-3,
,,,-11.5000E-3,314.20001E-3,
,,,-11.4800E-3,315.40000E-3,
,,,-11.4600E-3,315.00000E-3,
,,,-11.4400E-3,315.00000E-3,
,,,-11.4200E-3,315.00000E-3,
,,,-11.4000E-3,314.59999E-3,
,,,-11.3800E-3,315.00000E-3,
,,,-11.3600E-3,315.00000E-3,
,,,-11.3400E-3,315.80001E-3,
,,,-11.3200E-3,314.59999E-3,
,,,-11.3000E-3,315.00000E-3,
,,,-11.2800E-3,315.40000E-3,
,,,-11.2600E-3,314.59999E-3,
,,,-11.2400E-3,315.40000E-3,
,,,-11.2200E-3,315.00000E-3,
,,,-11.2000E-3,315.40000E-3,
,,,-11.1800E-3,315.00000E-3,
,,,-11.1600E-3,314.20001E-3,
,,,-11.1400E-3,315.00000E-3,
,,,-11.1200E-3,315.40000E-3,
,,,-11.1000E-3,315.40000E-3,
,,,-11.0800E-3,315.80001E-3,
,,,-11.0600E-3,315.00000E-3,
,,,-11.0400E-3,316.20002E-3,
,,,-11.0200E-3,315.40000E-3,
,,,-11.0000E-3,315.00000E-3,
,,,-10.9800E-3,315.40000E-3,
,,,-10.9600E-3,314.59999E-3,
,,,-10.9400E-3,315.40000E-3,
,,,-10.9200E-3,314.59999E-3,
,,,-10.9000E-3,315.40000E-3,
,,,-10.8800E-3,314.59999E-3,
,,,-10.8600E-3,315.40000E-3,
,,,-10.8400E-3,316.20002E-3,
,,,-10.8200E-3,316.20002E-3,
,,,-10.8000E-3,315.80001E-3,
,,,-10.7800E-3,315.80001E-3,
,,,-10.7600E-3,316.20002E-3,
,,,-10.7400E-3,316.20002E-3,
,,,-10.7200E-3,316.59999E-3,
,,,-10.7000E-3,315.40000E-3,
,,,-10.6800E-3,314.59999E-3,
,,,-10.6600E-3,315.40000E-3,
,,,-10.6400E-3,315.80001E-3,
,,,-10.6200E-3,315.40000E-3,
,,,-10.6000E-3,315.40000E-3,
,,,-10.5800E-3,315.40000E-3,
,,,-10.5600E-3,315.00000E-3,
,,,-10.5400E-3,315.40000E-3,
,,,-10.5200E-3,315.00000E-3,
,,,-10.5000E-3,315.80001E-3,
,,,-10.4800E-3,315.40000E-3,
,,,-10.4600E-3,315.40000E-3,
,,,-10.4400E-3,316.59999E-3,
,,,-10.4200E-3,315.40000E-3,
,,,-10.4000E-3,315.40000E-3,
,,,-10.3800E-3,315.00000E-3,
,,,-10.3600E-3,316.20002E-3,
,,,-10.3400E-3,315.00000E-3,
,,,-10.3200E-3,315.40000E-3,
,,,-10.3000E-3,315.80001E-3,
,,,-10.2800E-3,315.00000E-3,
,,,-10.2600E-3,315.80001E-3,
,,,-10.2400E-3,315.40000E-3,
,,,-10.2200E-3,315.40000E-3,
,,,-10.2000E-3,316.20002E-3,
,,,-10.1800E-3,315.80001E-3,
,,,-10.1600E-3,315.40000E-3,
,,,-10.1400E-3,315.00000E-3,
,,,-10.1200E-3,315.80001E-3,
,,,-10.1000E-3,315.40000E-3,
,,,-10.0800E-3,315.40000E-3,
,,,-10.0600E-3,315.80001E-3,
,,,-10.0400E-3,315.40000E-3,
,,,-10.0200E-3,316.20002E-3,
,,,-10.0000E-3,314.20001E-3,
,,,-9.980000E-3,315.00000E-3,
,,,-9.960000E-3,315.00000E-3,
,,,-9.940000E-3,315.80001E-3,
,,,-9.920000E-3,315.80001E-3,
,,,-9.900000E-3,315.40000E-3,
,,,-9.880000E-3,315.40000E-3,
,,,-9.860000E-3,315.40000E-3,
,,,-9.840000E-3,315.80001E-3,
,,,-9.820000E-3,315.80001E-3,
,,,-9.800000E-3,315.40000E-3,
,,,-9.780000E-3,315.80001E-3,
,,,-9.760000E-3,316.20002E-3,
,,,-9.740000E-3,315.40000E-3,
,,,-9.720000E-3,315.00000E-3,
,,,-9.700000E-3,315.80001E-3,
,,,-9.680000E-3,315.00000E-3,
,,,-9.660000E-3,316.59999E-3,
,,,-9.640000E-3,315.40000E-3,
,,,-9.620000E-3,316.20002E-3,
,,,-9.600000E-3,316.20002E-3,
,,,-9.580000E-3,315.00000E-3,
,,,-9.560000E-3,314.59999E-3,
,,,-9.540000E-3,314.59999E-3,
,,,-9.520000E-3,315.00000E-3,
,,,-9.500000E-3,315.40000E-3,
,,,-9.480000E-3,315.00000E-3,
,,,-9.460000E-3,315.00000E-3,
,,,-9.440000E-3,315.40000E-3,
,,,-9.420000E-3,315.00000E-3,
,,,-9.400000E-3,315.00000E-3,
,,,-9.380000E-3,315.00000E-3,
,,,-9.360000E-3,315.80001E-3,
,,,-9.340000E-3,315.40000E-3,
,,,-9.320000E-3,315.80001E-3,
,,,-9.300000E-3,315.40000E-3,
,,,-9.280000E-3,315.80001E-3,
,,,-9.260000E-3,315.00000E-3,
,,,-9.240000E-3,315.00000E-3,
,,,-9.220000E-3,315.00000E-3,
,,,-9.200000E-3,315.00000E-3,
,,,-9.180000E-3,315.40000E-3,
,,,-9.160000E-3,315.00000E-3,
,,,-9.140000E-3,314.59999E-3,
,,,-9.120000E-3,315.00000E-3,
,,,-9.100000E-3,315.00000E-3,
,,,-9.080000E-3,315.00000E-3,
,,,-9.060000E-3,314.20001E-3,
,,,-9.040000E-3,315.40000E-3,
,,,-9.020000E-3,315.00000E-3,
,,,-9.000000E-3,315.00000E-3,
,,,-8.980000E-3,315.80001E-3,
,,,-8.960000E-3,314.20001E-3,
,,,-8.940000E-3,315.40000E-3,
,,,-8.920000E-3,315.80001E-3,
,,,-8.900000E-3,315.00000E-3,
,,,-8.880000E-3,315.80001E-3,
,,,-8.860000E-3,315.40000E-3,
,,,-8.840000E-3,315.00000E-3,
,,,-8.820000E-3,315.00000E-3,
,,,-8.800000E-3,315.40000E-3,
,,,-8.780000E-3,315.40000E-3,
,,,-8.760000E-3,315.40000E-3,
,,,-8.740000E-3,315.00000E-3,
,,,-8.720000E-3,315.40000E-3,
,,,-8.700000E-3,314.59999E-3,
,,,-8.680000E-3,315.00000E-3,
,,,-8.660000E-3,315.00000E-3,
,,,-8.640000E-3,315.40000E-3,
,,,-8.620000E-3,315.80001E-3,
,,,-8.600000E-3,315.00000E-3,
,,,-8.580000E-3,315.40000E-3,
,,,-8.560000E-3,315.00000E-3,
,,,-8.540000E-3,315.00000E-3,
,,,-8.520000E-3,314.59999E-3,
,,,-8.500000E-3,314.20001E-3,
,,,-8.480000E-3,315.40000E-3,
,,,-8.460000E-3,315.40000E-3,
,,,-8.440000E-3,314.59999E-3,
,,,-8.420000E-3,315.00000E-3,
,,,-8.400000E-3,315.00000E-3,
,,,-8.380000E-3,315.40000E-3,
,,,-8.360000E-3,314.59999E-3,
,,,-8.340000E-3,315.00000E-3,
,,,-8.320000E-3,315.00000E-3,
,,,-8.300000E-3,314.59999E-3,
,,,-8.280000E-3,315.80001E-3,
,,,-8.260000E-3,314.59999E-3,
,,,-8.240000E-3,314.20001E-3,
,,,-8.220000E-3,314.59999E-3,
,,,-8.200000E-3,316.20002E-3,
,,,-8.180000E-3,315.40000E-3,
,,,-8.160000E-3,314.59999E-3,
,,,-8.140000E-3,315.00000E-3,
,,,-8.120000E-3,315.00000E-3,
,,,-8.100000E-3,315.40000E-3,
,,,-8.080000E-3,315.00000E-3,
,,,-8.060000E-3,315.80001E-3,
,,,-8.040000E-3,316.20002E-3,
,,,-8.020000E-3,315.80001E-3,
,,,-8.000000E-3,315.00000E-3,
,,,-7.980000E-3,314.59999E-3,
,,,-7.960000E-3,314.20001E-3,
,,,-7.940000E-3,315.40000E-3,
,,,-7.920000E-3,315.00000E-3,
,,,-7.900000E-3,315.40000E-3,
,,,-7.880000E-3,315.40000E-3,
,,,-7.860000E-3,315.40000E-3,
,,,-7.840000E-3,315.80001E-3,
,,,-7.820000E-3,315.00000E-3,
,,,-7.800000E-3,315.80001E-3,
,,,-7.780000E-3,315.80001E-3,
,,,-7.760000E-3,314.59999E-3,
,,,-7.740000E-3,315.40000E-3,
,,,-7.720000E-3,314.59999E-3,
,,,-7.700000E-3,315.00000E-3,
,,,-7.680000E-3,314.20001E-3,
,,,-7.660000E-3,314.20001E-3,
,,,-7.640000E-3,314.59999E-3,
,,,-7.620000E-3,315.40000E-3,
,,,-7.600000E-3,315.40000E-3,
,,,-7.580000E-3,315.00000E-3,
,,,-7.560000E-3,315.00000E-3,
,,,-7.540000E-3,315.40000E-3,
,,,-7.520000E-3,315.00000E-3,
,,,-7.500000E-3,315.00000E-3,
,,,-7.480000E-3,315.00000E-3,
,,,-7.460000E-3,314.59999E-3,
,,,-7.440000E-3,314.59999E-3,
,,,-7.420000E-3,315.40000E-3,
,,,-7.400000E-3,315.40000E-3,
,,,-7.38000E-3,315.00000E-3,
,,,-7.36000E-3,315.00000E-3,
,,,-7.34000E-3,315.00000E-3,
,,,-7.32000E-3,315.00000E-3,
,,,-7.30000E-3,314.59999E-3,
,,,-7.28000E-3,313.80001E-3,
,,,-7.26000E-3,315.00000E-3,
,,,-7.24000E-3,313.80001E-3,
,,,-7.22000E-3,314.59999E-3,
,,,-7.20000E-3,314.59999E-3,
,,,-7.18000E-3,314.59999E-3,
,,,-7.16000E-3,314.20001E-3,
,,,-7.14000E-3,314.20001E-3,
,,,-7.12000E-3,315.00000E-3,
,,,-7.10000E-3,315.40000E-3,
,,,-7.08000E-3,314.59999E-3,
,,,-7.06000E-3,313.80001E-3,
,,,-7.04000E-3,314.20001E-3,
,,,-7.02000E-3,315.00000E-3,
,,,-7.00000E-3,313.80001E-3,
,,,-6.98000E-3,315.00000E-3,
,,,-6.96000E-3,315.00000E-3,
,,,-6.94000E-3,314.59999E-3,
,,,-6.92000E-3,314.20001E-3,
,,,-6.90000E-3,314.20001E-3,
,,,-6.88000E-3,314.59999E-3,
,,,-6.86000E-3,314.20001E-3,
,,,-6.84000E-3,314.20001E-3,
,,,-6.82000E-3,314.20001E-3,
,,,-6.80000E-3,313.80001E-3,
,,,-6.78000E-3,314.20001E-3,
,,,-6.76000E-3,315.40000E-3,
,,,-6.74000E-3,313.80001E-3,
,,,-6.72000E-3,314.59999E-3,
,,,-6.70000E-3,315.00000E-3,
,,,-6.68000E-3,313.40000E-3,
,,,-6.66000E-3,315.00000E-3,
,,,-6.64000E-3,315.00000E-3,
,,,-6.62000E-3,314.20001E-3,
,,,-6.60000E-3,315.00000E-3,
,,,-6.58000E-3,315.00000E-3,
,,,-6.56000E-3,314.20001E-3,
,,,-6.54000E-3,314.20001E-3,
,,,-6.52000E-3,315.00000E-3,
,,,-6.50000E-3,315.80001E-3,
,,,-6.48000E-3,314.59999E-3,
,,,-6.46000E-3,315.00000E-3,
,,,-6.44000E-3,315.00000E-3,
,,,-6.42000E-3,315.40000E-3,
,,,-6.40000E-3,314.59999E-3,
,,,-6.38000E-3,315.00000E-3,
,,,-6.36000E-3,314.20001E-3,
,,,-6.34000E-3,314.20001E-3,
,,,-6.32000E-3,315.00000E-3,
,,,-6.30000E-3,315.00000E-3,
,,,-6.28000E-3,315.40000E-3,
,,,-6.26000E-3,313.80001E-3,
,,,-6.24000E-3,315.40000E-3,
,,,-6.22000E-3,314.20001E-3,
,,,-6.20000E-3,315.00000E-3,
,,,-6.18000E-3,314.59999E-3,
,,,-6.16000E-3,315.80001E-3,
,,,-6.14000E-3,315.00000E-3,
,,,-6.12000E-3,314.20001E-3,
,,,-6.10000E-3,315.00000E-3,
,,,-6.08000E-3,314.59999E-3,
,,,-6.06000E-3,315.40000E-3,
,,,-6.04000E-3,315.00000E-3,
,,,-6.02000E-3,315.00000E-3,
,,,-6.00000E-3,315.00000E-3,
,,,-5.98000E-3,315.40000E-3,
,,,-5.96000E-3,314.59999E-3,
,,,-5.94000E-3,314.20001E-3,
,,,-5.92000E-3,315.00000E-3,
,,,-5.90000E-3,315.00000E-3,
,,,-5.88000E-3,314.20001E-3,
,,,-5.86000E-3,315.00000E-3,
,,,-5.84000E-3,315.80001E-3,
,,,-5.82000E-3,315.00000E-3,
,,,-5.80000E-3,315.00000E-3,
,,,-5.78000E-3,315.00000E-3,
,,,-5.76000E-3,314.20001E-3,
,,,-5.74000E-3,315.80001E-3,
,,,-5.72000E-3,315.80001E-3,
,,,-5.70000E-3,315.40000E-3,
,,,-5.68000E-3,314.59999E-3,
,,,-5.66000E-3,315.00000E-3,
,,,-5.64000E-3,315.00000E-3,
,,,-5.62000E-3,314.59999E-3,
,,,-5.60000E-3,315.00000E-3,
,,,-5.58000E-3,315.00000E-3,
,,,-5.56000E-3,314.20001E-3,
,,,-5.54000E-3,315.40000E-3,
,,,-5.52000E-3,314.59999E-3,
,,,-5.50000E-3,314.20001E-3,
,,,-5.48000E-3,315.40000E-3,
,,,-5.46000E-3,314.20001E-3,
,,,-5.44000E-3,314.59999E-3,
,,,-5.42000E-3,315.00000E-3,
,,,-5.40000E-3,315.00000E-3,
,,,-5.38000E-3,315.00000E-3,
,,,-5.36000E-3,315.00000E-3,
,,,-5.34000E-3,314.20001E-3,
,,,-5.32000E-3,314.20001E-3,
,,,-5.30000E-3,315.40000E-3,
,,,-5.28000E-3,315.00000E-3,
,,,-5.26000E-3,314.20001E-3,
,,,-5.24000E-3,315.00000E-3,
,,,-5.22000E-3,315.40000E-3,
,,,-5.20000E-3,313.80001E-3,
,,,-5.18000E-3,315.00000E-3,
,,,-5.16000E-3,314.20001E-3,
,,,-5.14000E-3,314.59999E-3,
,,,-5.12000E-3,314.59999E-3,
,,,-5.10000E-3,315.40000E-3,
,,,-5.08000E-3,313.80001E-3,
,,,-5.06000E-3,315.00000E-3,
,,,-5.04000E-3,315.00000E-3,
,,,-5.02000E-3,315.40000E-3,
,,,-5.00000E-3,315.00000E-3,
,,,-4.98000E-3,315.00000E-3,
,,,-4.96000E-3,315.80001E-3,
,,,-4.94000E-3,315.00000E-3,
,,,-4.92000E-3,315.80001E-3,
,,,-4.90000E-3,315.40000E-3,
,,,-4.88000E-3,315.40000E-3,
,,,-4.86000E-3,314.59999E-3,
,,,-4.84000E-3,315.00000E-3,
,,,-4.82000E-3,315.80001E-3,
,,,-4.80000E-3,315.80001E-3,
,,,-4.78000E-3,314.20001E-3,
,,,-4.76000E-3,313.80001E-3,
,,,-4.74000E-3,316.20002E-3,
,,,-4.72000E-3,315.00000E-3,
,,,-4.70000E-3,315.00000E-3,
,,,-4.68000E-3,315.80001E-3,
,,,-4.66000E-3,315.80001E-3,
,,,-4.64000E-3,316.20002E-3,
,,,-4.62000E-3,315.40000E-3,
,,,-4.60000E-3,315.80001E-3,
,,,-4.58000E-3,316.20002E-3,
,,,-4.56000E-3,315.00000E-3,
,,,-4.54000E-3,315.80001E-3,
,,,-4.52000E-3,316.20002E-3,
,,,-4.50000E-3,314.59999E-3,
,,,-4.48000E-3,316.59999E-3,
,,,-4.46000E-3,315.00000E-3,
,,,-4.44000E-3,315.40000E-3,
,,,-4.42000E-3,314.59999E-3,
,,,-4.40000E-3,314.59999E-3,
,,,-4.38000E-3,315.80001E-3,
,,,-4.36000E-3,315.40000E-3,
,,,-4.34000E-3,315.00000E-3,
,,,-4.32000E-3,314.59999E-3,
,,,-4.30000E-3,315.40000E-3,
,,,-4.28000E-3,315.00000E-3,
,,,-4.26000E-3,314.59999E-3,
,,,-4.24000E-3,315.00000E-3,
,,,-4.22000E-3,314.59999E-3,
,,,-4.20000E-3,314.59999E-3,
,,,-4.18000E-3,314.59999E-3,
,,,-4.16000E-3,314.59999E-3,
,,,-4.14000E-3,314.59999E-3,
,,,-4.12000E-3,315.00000E-3,
,,,-4.10000E-3,315.00000E-3,
,,,-4.08000E-3,315.00000E-3,
,,,-4.06000E-3,314.20001E-3,
,,,-4.04000E-3,314.59999E-3,
,,,-4.02000E-3,314.20001E-3,
,,,-4.00000E-3,315.40000E-3,
,,,-3.98000E-3,314.20001E-3,
,,,-3.96000E-3,315.00000E-3,
,,,-3.94000E-3,315.40000E-3,
,,,-3.92000E-3,314.20001E-3,
,,,-3.90000E-3,314.59999E-3,
,,,-3.88000E-3,314.20001E-3,
,,,-3.86000E-3,315.00000E-3,
,,,-3.84000E-3,313.40000E-3,
,,,-3.82000E-3,316.20002E-3,
,,,-3.80000E-3,314.59999E-3,
,,,-3.78000E-3,315.80001E-3,
,,,-3.76000E-3,315.40000E-3,
,,,-3.74000E-3,314.20001E-3,
,,,-3.72000E-3,315.00000E-3,
,,,-3.70000E-3,314.20001E-3,
,,,-3.68000E-3,315.00000E-3,
,,,-3.66000E-3,315.00000E-3,
,,,-3.64000E-3,315.40000E-3,
,,,-3.62000E-3,315.80001E-3,
,,,-3.60000E-3,314.59999E-3,
,,,-3.58000E-3,315.00000E-3,
,,,-3.56000E-3,315.00000E-3,
,,,-3.54000E-3,315.00000E-3,
,,,-3.52000E-3,315.40000E-3,
,,,-3.50000E-3,315.80001E-3,
,,,-3.48000E-3,315.80001E-3,
,,,-3.46000E-3,315.40000E-3,
,,,-3.44000E-3,315.80001E-3,
,,,-3.42000E-3,315.40000E-3,
,,,-3.40000E-3,316.59999E-3,
,,,-3.38000E-3,316.20002E-3,
,,,-3.36000E-3,316.59999E-3,
,,,-3.34000E-3,315.80001E-3,
,,,-3.32000E-3,315.80001E-3,
,,,-3.30000E-3,315.00000E-3,
,,,-3.28000E-3,315.80001E-3,
,,,-3.26000E-3,316.20002E-3,
,,,-3.24000E-3,317.00000E-3,
,,,-3.22000E-3,316.59999E-3,
,,,-3.20000E-3,316.59999E-3,
,,,-3.18000E-3,316.59999E-3,
,,,-3.16000E-3,317.00000E-3,
,,,-3.14000E-3,317.00000E-3,
,,,-3.12000E-3,317.40001E-3,
,,,-3.10000E-3,317.40001E-3,
,,,-3.08000E-3,317.40001E-3,
,,,-3.06000E-3,317.40001E-3,
,,,-3.04000E-3,317.40001E-3,
,,,-3.02000E-3,317.80002E-3,
,,,-3.00000E-3,317.00000E-3,
,,,-2.98000E-3,317.40001E-3,
,,,-2.96000E-3,317.00000E-3,
,,,-2.94000E-3,317.40001E-3,
,,,-2.92000E-3,317.80002E-3,
,,,-2.90000E-3,317.40001E-3,
,,,-2.88000E-3,317.40001E-3,
,,,-2.86000E-3,316.59999E-3,
,,,-2.84000E-3,317.80002E-3,
,,,-2.82000E-3,317.00000E-3,
,,,-2.80000E-3,318.19999E-3,
,,,-2.78000E-3,317.00000E-3,
,,,-2.76000E-3,318.19999E-3,
,,,-2.74000E-3,317.40001E-3,
,,,-2.72000E-3,317.00000E-3,
,,,-2.7000E-3,317.40001E-3,
,,,-2.6800E-3,318.19999E-3,
,,,-2.6600E-3,319.00001E-3,
,,,-2.6400E-3,317.80002E-3,
,,,-2.6200E-3,317.40001E-3,
,,,-2.6000E-3,317.80002E-3,
,,,-2.5800E-3,317.00000E-3,
,,,-2.5600E-3,318.19999E-3,
,,,-2.5400E-3,317.40001E-3,
,,,-2.5200E-3,317.80002E-3,
,,,-2.5000E-3,319.00001E-3,
,,,-2.4800E-3,318.19999E-3,
,,,-2.4600E-3,317.40001E-3,
,,,-2.4400E-3,317.00000E-3,
,,,-2.4200E-3,318.60000E-3,
,,,-2.4000E-3,317.80002E-3,
,,,-2.3800E-3,317.80002E-3,
,,,-2.3600E-3,318.19999E-3,
,,,-2.3400E-3,317.40001E-3,
,,,-2.3200E-3,318.19999E-3,
,,,-2.3000E-3,318.19999E-3,
,,,-2.2800E-3,318.19999E-3,
,,,-2.2600E-3,318.19999E-3,
,,,-2.2400E-3,319.00001E-3,
,,,-2.2200E-3,317.80002E-3,
,,,-2.2000E-3,318.19999E-3,
,,,-2.1800E-3,318.60000E-3,
,,,-2.1600E-3,318.60000E-3,
,,,-2.1400E-3,317.80002E-3,
,,,-2.1200E-3,317.80002E-3,
,,,-2.1000E-3,318.19999E-3,
,,,-2.0800E-3,318.19999E-3,
,,,-2.0600E-3,319.00001E-3,
,,,-2.0400E-3,317.80002E-3,
,,,-2.0200E-3,317.80002E-3,
,,,-2.0000E-3,319.00001E-3,
,,,-1.9800E-3,318.19999E-3,
,,,-1.9600E-3,319.00001E-3,
,,,-1.9400E-3,318.19999E-3,
,,,-1.9200E-3,317.80002E-3,
,,,-1.9000E-3,318.60000E-3,
,,,-1.8800E-3,319.00001E-3,
,,,-1.8600E-3,319.00001E-3,
,,,-1.8400E-3,318.19999E-3,
,,,-1.8200E-3,317.80002E-3,
,,,-1.8000E-3,318.60000E-3,
,,,-1.7800E-3,317.40001E-3,
,,,-1.7600E-3,319.00001E-3,
,,,-1.7400E-3,319.00001E-3,
,,,-1.7200E-3,317.80002E-3,
,,,-1.7000E-3,319.00001E-3,
,,,-1.6800E-3,318.19999E-3,
